{
    "prepare_queue": {
        "installed": [],
        "uninstalled": []
    },
    "config_munge": {
        "files": {
            "framework": {
                "parents": {
                    "CoreGraphics.framework": [
                        {
                            "xml": false,
                            "count": 1
                        }
                    ]
                }
            },
            "config.xml": {
                "parents": {
                    "/*": [
                        {
                            "xml": "<feature name=\"InAppBrowser\"><param name=\"ios-package\" value=\"CDVInAppBrowser\" /></feature>",
                            "count": 1
                        },
                        {
                            "xml": "<feature name=\"StatusBar\"><param name=\"ios-package\" onload=\"true\" value=\"CDVStatusBar\" /></feature>",
                            "count": 1
                        },
                        {
                            "xml": "<preference name=\"StatusBarOverlaysWebView\" value=\"true\" />",
                            "count": 1
                        },
                        {
                            "xml": "<preference name=\"StatusBarStyle\" value=\"lightcontent\" />",
                            "count": 1
                        }
                    ]
                }
            },
            "*-Info.plist": {
                "parents": {
                    "NSAppTransportSecurity": [
                        {
                            "xml": "<dict><key>NSAllowsArbitraryLoads</key><true /></dict>",
                            "count": 1
                        }
                    ]
                }
            }
        }
    },
    "installed_plugins": {
        "cordova-plugin-inappbrowser": {
            "PACKAGE_NAME": "io.cordova.CordovaAlbumViewer"
        },
        "cordova-plugin-transport-security": {
            "PACKAGE_NAME": "io.cordova.CordovaAlbumViewer"
        },
        "org.apache.cordova.statusbar": {
            "PACKAGE_NAME": "io.cordova.CordovaAlbumViewer"
        }
    },
    "dependent_plugins": {}
}